<?xml version="1.0" standalone="no"?>
<!DOCTYPE svg PUBLIC "-//W3C//DTD SVG 20010904//EN"
 "http://www.w3.org/TR/2001/REC-SVG-20010904/DTD/svg10.dtd">
<svg version="1.0" xmlns="http://www.w3.org/2000/svg"
 width="16.000000pt" height="16.000000pt" viewBox="0 0 16.000000 16.000000"
 preserveAspectRatio="xMidYMid meet">
<metadata>
Created by potrace 1.11, written by Peter Selinger 2001-2013
</metadata>
<g transform="translate(0.000000,16.000000) scale(0.005926,-0.005926)"
fill="#000000" stroke="none">
<path d="M1336 2316 c4 -356 -79 -614 -270 -841 -28 -33 -53 -62 -56 -65 -48
-47 -156 -202 -193 -275 -53 -106 -66 -176 -63 -324 2 -75 6 -147 10 -161 3
-14 9 -38 12 -55 4 -16 19 -58 35 -93 56 -125 191 -223 354 -256 17 -4 41 -9
55 -12 58 -13 293 -12 353 2 159 38 269 128 335 275 16 35 29 66 30 69 1 15
15 88 20 105 11 46 9 297 -3 390 -45 333 -153 638 -343 975 -69 122 -191 314
-245 385 l-32 42 1 -161z"/>
</g>
</svg>
